[
	{"title": "Basic", "key": "Basic", "expand": true, "isFolder": true, "children": [
			{"title": "Periodic", "key": "[child] Periodic"},
			{"title": "Continous", "key": "[child] Continous"},
			{"title": "Eventual", "key": "[child] Eventual"},
			{"title": "Notification", "key": "[child] Notification"},
			{"title": "IndividualDonor", "key": "[child] IndividualDonor"},
			{"title": "Summary", "key": "[child] Summary"},
			{"title": "Money", "key": "[child] Money"},
			{"title": "Item", "key": "[child] Item"},
			{"title": "IndividualBeneficiary", "key": "[child] IndividualBeneficiary"}
		]
	},
	{"title": "Additional_2", "key": "Additional_2", "expand": true, "isFolder": true, "children": [
			{"title": "AutomaticReport", "key": "[child] AutomaticReport"},
			{"title": "Confirmation", "key": "[child] Confirmation"},
			{"title": "District", "key": "[child] District"},
			{"title": "Product", "key": "[child] Product"}
		]
	},
	{"title": "Additional_1", "key": "Additional_1", "expand": true, "isFolder": true, "children": [
			{"title": "Blog", "key": "[child] Blog"},
			{"title": "InstitutionalDonor", "key": "[child] InstitutionalDonor"},
			{"title": "Expense", "key": "[child] Expense"},
			{"title": "Income", "key": "[child] Income"},
			{"title": "InstitutionBeneficiary", "key": "[child] InstitutionBeneficiary"}
		]
	}
]
